module gitlab.com/apalia/coredns-cloudstack

go 1.18

require (
	github.com/apache/cloudstack-go/v2 v2.13.2
	github.com/coredns/caddy v1.1.1
	github.com/coredns/coredns v1.10.0
	github.com/miekg/dns v1.1.50
	github.com/prometheus/client_golang v1.13.0
)

require (
	github.com/apparentlymart/go-cidr v1.1.0 // indirect
	github.com/beorn7/perks v1.0.1 // indirect
	github.com/cespare/xxhash/v2 v2.1.2 // indirect
	github.com/flynn/go-shlex v0.0.0-20150515145356-3f9db97f8568 // indirect
	github.com/golang/mock v1.6.0 // indirect
	github.com/golang/protobuf v1.5.2 // indirect
	github.com/grpc-ecosystem/grpc-opentracing v0.0.0-20180507213350-8e809c8a8645 // indirect
	github.com/matttproud/golang_protobuf_extensions v1.0.4 // indirect
	github.com/opentracing/opentracing-go v1.2.0 // indirect
	github.com/prometheus/client_model v0.3.0 // indirect
	github.com/prometheus/common v0.37.0 // indirect
	github.com/prometheus/procfs v0.8.0 // indirect
	golang.org/x/mod v0.6.0 // indirect
	golang.org/x/net v0.7.0 // indirect
	golang.org/x/sys v0.5.0 // indirect
	golang.org/x/text v0.7.0 // indirect
	golang.org/x/tools v0.2.0 // indirect
	google.golang.org/genproto v0.0.0-20221025140454-527a21cfbd71 // indirect
	google.golang.org/grpc v1.50.1 // indirect
	google.golang.org/protobuf v1.28.1 // indirect
)
